…
- **`group_by()`** groups a tibble according to the instruction\

    + _Operations you do on a grouped tibble are done independently in each group_
    + Inside `group_by` you can define a new variable and use it to subset


```r
gapminder %>% 
  group_by(continent, year)
```

```
## # A tibble: 1,704 x 6
## # Groups:   continent, year [60]
##    country     continent  year lifeExp      pop gdpPercap
##    <fct>       <fct>     <int>   <dbl>    <int>     <dbl>
##  1 Afghanistan Asia       1952    28.8  8425333      779.
##  2 Afghanistan Asia       1957    30.3  9240934      821.
##  3 Afghanistan Asia       1962    32.0 10267083      853.
##  4 Afghanistan Asia       1967    34.0 11537966      836.
##  5 Afghanistan Asia       1972    36.1 13079460      740.
##  6 Afghanistan Asia       1977    38.4 14880372      786.
##  7 Afghanistan Asia       1982    39.9 12881816      978.
##  8 Afghanistan Asia       1987    40.8 13867957      852.
##  9 Afghanistan Asia       1992    41.7 16317921      649.
## 10 Afghanistan Asia       1997    41.8 22227415      635.
## # ... with 1,694 more rows
```

```r
# Dataframe is not rearranged, grouping appears over output

gapminder %>% 
  group_by(smallLifeExp = lifeExp < 60)
```

```
## # A tibble: 1,704 x 7
## # Groups:   smallLifeExp [2]
##    country     continent  year lifeExp      pop gdpPercap smallLifeExp
##    <fct>       <fct>     <int>   <dbl>    <int>     <dbl> <lgl>       
##  1 Afghanistan Asia       1952    28.8  8425333      779. TRUE        
##  2 Afghanistan Asia       1957    30.3  9240934      821. TRUE        
##  3 Afghanistan Asia       1962    32.0 10267083      853. TRUE        
##  4 Afghanistan Asia       1967    34.0 11537966      836. TRUE        
##  5 Afghanistan Asia       1972    36.1 13079460      740. TRUE        
##  6 Afghanistan Asia       1977    38.4 14880372      786. TRUE        
##  7 Afghanistan Asia       1982    39.9 12881816      978. TRUE        
##  8 Afghanistan Asia       1987    40.8 13867957      852. TRUE        
##  9 Afghanistan Asia       1992    41.7 16317921      649. TRUE        
## 10 Afghanistan Asia       1997    41.8 22227415      635. TRUE        
## # ... with 1,694 more rows
```
…
```r
gapminder %>% 
  group_by(continent, year) %>% 
  summarize(mu    = mean(lifeExp),
            sigma = sd(lifeExp))
```

```
## # A tibble: 60 x 4
## # Groups:   continent [5]
##    continent  year    mu sigma
##    <fct>     <int> <dbl> <dbl>
##  1 Africa     1952  39.1  5.15
##  2 Africa     1957  41.3  5.62
##  3 Africa     1962  43.3  5.88
##  4 Africa     1967  45.3  6.08
##  5 Africa     1972  47.5  6.42
##  6 Africa     1977  49.6  6.81
##  7 Africa     1982  51.6  7.38
##  8 Africa     1987  53.3  7.86
##  9 Africa     1992  53.6  9.46
## 10 Africa     1997  53.6  9.10
## # ... with 50 more rows
```

```r
 # compare against different order
gapminder %>% 
  group_by(year, continent) %>%   
  summarize(mu    = mean(lifeExp),
            sigma = sd(lifeExp))
```

```
## # A tibble: 60 x 4
## # Groups:   year [12]
##     year continent    mu  sigma
##    <int> <fct>     <dbl>  <dbl>
##  1  1952 Africa     39.1 5.15  
##  2  1952 Americas   53.3 9.33  
##  3  1952 Asia       46.3 9.29  
##  4  1952 Europe     64.4 6.36  
##  5  1952 Oceania    69.3 0.191 
##  6  1957 Africa     41.3 5.62  
##  7  1957 Americas   56.0 9.03  
##  8  1957 Asia       49.3 9.64  
##  9  1957 Europe     66.7 5.30  
## 10  1957 Oceania    70.3 0.0495
## # ... with 50 more rows
```
…
