…
```r
relig_income %>% 
  pivot_longer(cols = -religion, 
               names_to = "income", 
               values_to = "count")
```

```
## # A tibble: 180 x 3
##    religion income             count
##    <chr>    <chr>              <dbl>
##  1 Agnostic <$10k                 27
##  2 Agnostic $10-20k               34
##  3 Agnostic $20-30k               60
##  4 Agnostic $30-40k               81
##  5 Agnostic $40-50k               76
##  6 Agnostic $50-75k              137
##  7 Agnostic $75-100k             122
##  8 Agnostic $100-150k            109
##  9 Agnostic >150k                 84
## 10 Agnostic Don't know/refused    96
## # ... with 170 more rows
```

- `names_prefix` specifies a character string to remove from start of each variable name
- `names_ptypes = list()` changes variable types


```r
billboard
```

```
## # A tibble: 317 x 79
##    artist track date.entered   wk1   wk2   wk3   wk4   wk5   wk6   wk7
##    <chr>  <chr> <date>       <dbl> <dbl> <dbl> <dbl> <dbl> <dbl> <dbl>
##  1 2 Pac  Baby~ 2000-02-26      87    82    72    77    87    94    99
##  2 2Ge+h~ The ~ 2000-09-02      91    87    92    NA    NA    NA    NA
##  3 3 Doo~ Kryp~ 2000-04-08      81    70    68    67    66    57    54
##  4 3 Doo~ Loser 2000-10-21      76    76    72    69    67    65    55
##  5 504 B~ Wobb~ 2000-04-15      57    34    25    17    17    31    36
##  6 98^0   Give~ 2000-08-19      51    39    34    26    26    19     2
##  7 A*Tee~ Danc~ 2000-07-08      97    97    96    95   100    NA    NA
##  8 Aaliy~ I Do~ 2000-01-29      84    62    51    41    38    35    35
##  9 Aaliy~ Try ~ 2000-03-18      59    53    38    28    21    18    16
## 10 Adams~ Open~ 2000-08-26      76    76    74    69    68    67    61
## # ... with 307 more rows, and 69 more variables: wk8 <dbl>, wk9 <dbl>,
## #   wk10 <dbl>, wk11 <dbl>, wk12 <dbl>, wk13 <dbl>, wk14 <dbl>,
## #   wk15 <dbl>, wk16 <dbl>, wk17 <dbl>, wk18 <dbl>, wk19 <dbl>,
## #   wk20 <dbl>, wk21 <dbl>, wk22 <dbl>, wk23 <dbl>, wk24 <dbl>,
## #   wk25 <dbl>, wk26 <dbl>, wk27 <dbl>, wk28 <dbl>, wk29 <dbl>,
## #   wk30 <dbl>, wk31 <dbl>, wk32 <dbl>, wk33 <dbl>, wk34 <dbl>,
## #   wk35 <dbl>, wk36 <dbl>, wk37 <dbl>, wk38 <dbl>, wk39 <dbl>,
## #   wk40 <dbl>, wk41 <dbl>, wk42 <dbl>, wk43 <dbl>, wk44 <dbl>,
## #   wk45 <dbl>, wk46 <dbl>, wk47 <dbl>, wk48 <dbl>, wk49 <dbl>,
…
```r
billboard %>% 
  pivot_longer(
    cols = starts_with("wk"), 
    names_to = "week", 
    values_to = "rank",
    values_drop_na = TRUE
  )
```

```
## # A tibble: 5,307 x 5
##    artist  track                   date.entered week   rank
##    <chr>   <chr>                   <date>       <chr> <dbl>
##  1 2 Pac   Baby Don't Cry (Keep... 2000-02-26   wk1      87
##  2 2 Pac   Baby Don't Cry (Keep... 2000-02-26   wk2      82
##  3 2 Pac   Baby Don't Cry (Keep... 2000-02-26   wk3      72
##  4 2 Pac   Baby Don't Cry (Keep... 2000-02-26   wk4      77
##  5 2 Pac   Baby Don't Cry (Keep... 2000-02-26   wk5      87
##  6 2 Pac   Baby Don't Cry (Keep... 2000-02-26   wk6      94
##  7 2 Pac   Baby Don't Cry (Keep... 2000-02-26   wk7      99
##  8 2Ge+her The Hardest Part Of ... 2000-09-02   wk1      91
##  9 2Ge+her The Hardest Part Of ... 2000-09-02   wk2      87
## 10 2Ge+her The Hardest Part Of ... 2000-09-02   wk3      92
## # ... with 5,297 more rows
```

```r
billboard %>% 
  pivot_longer(
    cols = starts_with("wk"), 
    names_to = "week", 
    names_prefix = "wk",
    names_ptypes = list(week = integer()),
    values_to = "rank",
    values_drop_na = TRUE,
  )
```

```
## # A tibble: 5,307 x 5
##    artist  track                   date.entered  week  rank
##    <chr>   <chr>                   <date>       <int> <dbl>
##  1 2 Pac   Baby Don't Cry (Keep... 2000-02-26       1    87
##  2 2 Pac   Baby Don't Cry (Keep... 2000-02-26       2    82
##  3 2 Pac   Baby Don't Cry (Keep... 2000-02-26       3    72
##  4 2 Pac   Baby Don't Cry (Keep... 2000-02-26       4    77
##  5 2 Pac   Baby Don't Cry (Keep... 2000-02-26       5    87
##  6 2 Pac   Baby Don't Cry (Keep... 2000-02-26       6    94
##  7 2 Pac   Baby Don't Cry (Keep... 2000-02-26       7    99
##  8 2Ge+her The Hardest Part Of ... 2000-09-02       1    91
##  9 2Ge+her The Hardest Part Of ... 2000-09-02       2    87
## 10 2Ge+her The Hardest Part Of ... 2000-09-02       3    92
## # ... with 5,297 more rows
```

- `names_pattern` can be used when a column contains multiple values. 
    + `new_?` ignores the string


```r
who
```

```
## # A tibble: 7,240 x 60
##    country iso2  iso3   year new_sp_m014 new_sp_m1524 new_sp_m2534
##    <chr>   <chr> <chr> <int>       <int>        <int>        <int>
##  1 Afghan~ AF    AFG    1980          NA           NA           NA
##  2 Afghan~ AF    AFG    1981          NA           NA           NA
##  3 Afghan~ AF    AFG    1982          NA           NA           NA
##  4 Afghan~ AF    AFG    1983          NA           NA           NA
##  5 Afghan~ AF    AFG    1984          NA           NA           NA
##  6 Afghan~ AF    AFG    1985          NA           NA           NA
##  7 Afghan~ AF    AFG    1986          NA           NA           NA
##  8 Afghan~ AF    AFG    1987          NA           NA           NA
##  9 Afghan~ AF    AFG    1988          NA           NA           NA
## 10 Afghan~ AF    AFG    1989          NA           NA           NA
## # ... with 7,230 more rows, and 53 more variables: new_sp_m3544 <int>,
## #   new_sp_m4554 <int>, new_sp_m5564 <int>, new_sp_m65 <int>,
## #   new_sp_f014 <int>, new_sp_f1524 <int>, new_sp_f2534 <int>,
## #   new_sp_f3544 <int>, new_sp_f4554 <int>, new_sp_f5564 <int>,
## #   new_sp_f65 <int>, new_sn_m014 <int>, new_sn_m1524 <int>,
## #   new_sn_m2534 <int>, new_sn_m3544 <int>, new_sn_m4554 <int>,
## #   new_sn_m5564 <int>, new_sn_m65 <int>, new_sn_f014 <int>,
## #   new_sn_f1524 <int>, new_sn_f2534 <int>, new_sn_f3544 <int>,
## #   new_sn_f4554 <int>, new_sn_f5564 <int>, new_sn_f65 <int>,
…
```r
who %>% 
  pivot_longer(
  cols = new_sp_m014:newrel_f65,
  names_to = c("diagnosis", "gender", "age"),
  names_pattern = "new_?(.*)_(.)(.*)",
  values_to = "count"
)
```

```
## # A tibble: 405,440 x 8
##    country     iso2  iso3   year diagnosis gender age   count
##    <chr>       <chr> <chr> <int> <chr>     <chr>  <chr> <int>
##  1 Afghanistan AF    AFG    1980 sp        m      014      NA
##  2 Afghanistan AF    AFG    1980 sp        m      1524     NA
##  3 Afghanistan AF    AFG    1980 sp        m      2534     NA
##  4 Afghanistan AF    AFG    1980 sp        m      3544     NA
##  5 Afghanistan AF    AFG    1980 sp        m      4554     NA
##  6 Afghanistan AF    AFG    1980 sp        m      5564     NA
##  7 Afghanistan AF    AFG    1980 sp        m      65       NA
##  8 Afghanistan AF    AFG    1980 sp        f      014      NA
##  9 Afghanistan AF    AFG    1980 sp        f      1524     NA
## 10 Afghanistan AF    AFG    1980 sp        f      2534     NA
## # ... with 405,430 more rows
```
…
```r
anscombe %>% 
  pivot_longer(everything(), 
    names_to = c(".value", "set"), 
    names_pattern = "(.)(.)"
  ) %>% 
  arrange(set)
```

```
## # A tibble: 44 x 3
##    set       x     y
##    <chr> <dbl> <dbl>
##  1 1        10  8.04
##  2 1         8  6.95
##  3 1        13  7.58
##  4 1         9  8.81
##  5 1        11  8.33
##  6 1        14  9.96
##  7 1         6  7.24
##  8 1         4  4.26
##  9 1        12 10.8 
## 10 1         7  4.82
## # ... with 34 more rows
```
### Pivot_wider

Makes a dataset wider by increasing the number of columns and decreasing the number of rows. 

- `id_cols=` what you want to keep as it is
- `names_from=`Here you specify from what column do the new column names come , can be multiple columns
- `values_from:` the values under the new columns are coming from an old column. Which column is this?


```r
fish_encounters
```

```
## # A tibble: 114 x 3
##    fish  station  seen
##    <fct> <fct>   <int>
##  1 4842  Release     1
##  2 4842  I80_1       1
##  3 4842  Lisbon      1
##  4 4842  Rstr        1
##  5 4842  Base_TD     1
##  6 4842  BCE         1
##  7 4842  BCW         1
##  8 4842  BCE2        1
##  9 4842  BCW2        1
## 10 4842  MAE         1
## # ... with 104 more rows
```
…
- You can specify if new variables will include a transformation (data has 9 replication)


```r
warpbreaks <- warpbreaks %>% 
  as_tibble() %>% 
  select(wool, tension, breaks) %>%
  print()
```

```
## # A tibble: 54 x 3
##    wool  tension breaks
##    <fct> <fct>    <dbl>
##  1 A     L           26
##  2 A     L           30
##  3 A     L           54
##  4 A     L           25
##  5 A     L           70
##  6 A     L           52
##  7 A     L           51
##  8 A     L           26
##  9 A     L           67
## 10 A     M           18
## # ... with 44 more rows
```
…
